vec_decode_tb.vcd
$date
	Tue Dec  2 13:50:07 2025
$end
$version
	ModelSim Version 2020.1
$end
$timescale
	1ps
$end

$scope module vec_decode_tb $end
$var parameter 32 ! CLK_PERIOD $end
$var reg 32 " vec_inst [31:0] $end
$var reg 32 # rs1_data [31:0] $end
$var reg 32 $ rs2_data [31:0] $end
$var reg 1 % is_vec $end
$var reg 32 & vec_read_addr_1 [31:0] $end
$var reg 32 ' vec_read_addr_2 [31:0] $end
$var reg 32 ( vec_write_addr [31:0] $end
$var reg 4096 ) vec_imm [4095:0] $end
$var reg 1 * vec_mask $end
$var reg 3 + width [2:0] $end
$var reg 1 , mew $end
$var reg 3 - nf [2:0] $end
$var reg 32 . scalar2 [31:0] $end
$var reg 32 / scalar1 [31:0] $end
$var reg 1 0 vl_sel $end
$var reg 1 1 vtype_sel $end
$var reg 1 2 lumop_sel $end
$var reg 1 3 clk $end
$var integer 32 4 test_num $end
$var integer 32 5 pass_count $end
$var integer 32 6 fail_count $end

$scope task check_result $end
$var reg 1 7 expected_is_vec $end
$var reg 32 8 expected_write_addr [31:0] $end
$var reg 32 9 expected_read_addr_1 [31:0] $end
$var reg 32 : expected_read_addr_2 [31:0] $end
$upscope $end

$scope task display_func6_status $end
$upscope $end

$scope module dut $end
$var wire 1 ; vec_inst [31] $end
$var wire 1 < vec_inst [30] $end
$var wire 1 = vec_inst [29] $end
$var wire 1 > vec_inst [28] $end
$var wire 1 ? vec_inst [27] $end
$var wire 1 @ vec_inst [26] $end
$var wire 1 A vec_inst [25] $end
$var wire 1 B vec_inst [24] $end
$var wire 1 C vec_inst [23] $end
$var wire 1 D vec_inst [22] $end
$var wire 1 E vec_inst [21] $end
$var wire 1 F vec_inst [20] $end
$var wire 1 G vec_inst [19] $end
$var wire 1 H vec_inst [18] $end
$var wire 1 I vec_inst [17] $end
$var wire 1 J vec_inst [16] $end
$var wire 1 K vec_inst [15] $end
$var wire 1 L vec_inst [14] $end
$var wire 1 M vec_inst [13] $end
$var wire 1 N vec_inst [12] $end
$var wire 1 O vec_inst [11] $end
$var wire 1 P vec_inst [10] $end
$var wire 1 Q vec_inst [9] $end
$var wire 1 R vec_inst [8] $end
$var wire 1 S vec_inst [7] $end
$var wire 1 T vec_inst [6] $end
$var wire 1 U vec_inst [5] $end
$var wire 1 V vec_inst [4] $end
$var wire 1 W vec_inst [3] $end
$var wire 1 X vec_inst [2] $end
$var wire 1 Y vec_inst [1] $end
$var wire 1 Z vec_inst [0] $end
$var wire 1 [ rs1_data [31] $end
$var wire 1 \ rs1_data [30] $end
$var wire 1 ] rs1_data [29] $end
$var wire 1 ^ rs1_data [28] $end
$var wire 1 _ rs1_data [27] $end
$var wire 1 ` rs1_data [26] $end
$var wire 1 a rs1_data [25] $end
$var wire 1 b rs1_data [24] $end
$var wire 1 c rs1_data [23] $end
$var wire 1 d rs1_data [22] $end
$var wire 1 e rs1_data [21] $end
$var wire 1 f rs1_data [20] $end
$var wire 1 g rs1_data [19] $end
$var wire 1 h rs1_data [18] $end
$var wire 1 i rs1_data [17] $end
$var wire 1 j rs1_data [16] $end
$var wire 1 k rs1_data [15] $end
$var wire 1 l rs1_data [14] $end
$var wire 1 m rs1_data [13] $end
$var wire 1 n rs1_data [12] $end
$var wire 1 o rs1_data [11] $end
$var wire 1 p rs1_data [10] $end
$var wire 1 q rs1_data [9] $end
$var wire 1 r rs1_data [8] $end
$var wire 1 s rs1_data [7] $end
$var wire 1 t rs1_data [6] $end
$var wire 1 u rs1_data [5] $end
$var wire 1 v rs1_data [4] $end
$var wire 1 w rs1_data [3] $end
$var wire 1 x rs1_data [2] $end
$var wire 1 y rs1_data [1] $end
$var wire 1 z rs1_data [0] $end
$var wire 1 { rs2_data [31] $end
$var wire 1 | rs2_data [30] $end
$var wire 1 } rs2_data [29] $end
$var wire 1 ~ rs2_data [28] $end
$var wire 1 !! rs2_data [27] $end
$var wire 1 "! rs2_data [26] $end
$var wire 1 #! rs2_data [25] $end
$var wire 1 $! rs2_data [24] $end
$var wire 1 %! rs2_data [23] $end
$var wire 1 &! rs2_data [22] $end
$var wire 1 '! rs2_data [21] $end
$var wire 1 (! rs2_data [20] $end
$var wire 1 )! rs2_data [19] $end
$var wire 1 *! rs2_data [18] $end
$var wire 1 +! rs2_data [17] $end
$var wire 1 ,! rs2_data [16] $end
$var wire 1 -! rs2_data [15] $end
$var wire 1 .! rs2_data [14] $end
$var wire 1 /! rs2_data [13] $end
$var wire 1 0! rs2_data [12] $end
$var wire 1 1! rs2_data [11] $end
$var wire 1 2! rs2_data [10] $end
$var wire 1 3! rs2_data [9] $end
$var wire 1 4! rs2_data [8] $end
$var wire 1 5! rs2_data [7] $end
$var wire 1 6! rs2_data [6] $end
$var wire 1 7! rs2_data [5] $end
$var wire 1 8! rs2_data [4] $end
$var wire 1 9! rs2_data [3] $end
$var wire 1 :! rs2_data [2] $end
$var wire 1 ;! rs2_data [1] $end
$var wire 1 <! rs2_data [0] $end
$var reg 1 =! is_vec $end
$var reg 32 >! vec_read_addr_1 [31:0] $end
$var reg 32 ?! vec_read_addr_2 [31:0] $end
$var reg 32 @! vec_write_addr [31:0] $end
$var reg 4096 A! vec_imm [4095:0] $end
$var reg 1 B! vec_mask $end
$var reg 3 C! width [2:0] $end
$var reg 1 D! mew $end
$var reg 3 E! nf [2:0] $end
$var reg 32 F! scalar2 [31:0] $end
$var reg 32 G! scalar1 [31:0] $end
$var wire 1 H! vl_sel $end
$var wire 1 I! vtype_sel $end
$var wire 1 J! lumop_sel $end
$var reg 7 K! vopcode [6:0] $end
$var reg 3 L! vfunc3 [2:0] $end
$var reg 6 M! vfunc6_vix [5:0] $end
$var reg 6 N! vfunc6_vx [5:0] $end
$var reg 2 O! inst_msb [1:0] $end
$var reg 5 P! vs1_addr [4:0] $end
$var reg 5 Q! vs3_addr [4:0] $end
$var reg 5 R! vs2_addr [4:0] $end
$var reg 5 S! vd_addr [4:0] $end
$var reg 5 T! rs1_addr [4:0] $end
$var reg 5 U! imm [4:0] $end
$var reg 1 V! vm $end
$var reg 5 W! lumop [4:0] $end
$var reg 2 X! mop [1:0] $end
$var reg 32 Y! rs1_o [31:0] $end
$var reg 32 Z! rs2_o [31:0] $end
$var reg 32 [! vtype_mux [31:0] $end
$var reg 11 \! zimm [10:0] $end
$var reg 5 ]! uimm [4:0] $end
$var reg 6 ^! func_6 [5:0] $end
$var reg 6 _! vec_func6 [5:0] $end
$var reg 1 `! is_valid_vix $end
$var reg 1 a! is_valid_vx $end
$var reg 1 b! vec_op_valid $end

$scope begin vec_decode $end
$upscope $end
$upscope $end
$upscope $end
$enddefinitions $end
#0
$dumpvars
b0 "
b10010001101000101011001111000 #
b10000111011001010100001100100001 $
0%
b0 &
b0 '
b0 (
b0 )
0*
b0 +
0,
b0 -
b0 .
b0 /
00
01
02
03
0=!
b0 >!
b0 ?!
b0 @!
b0 A!
0B!
b0 C!
0D!
b0 E!
b0 F!
b0 G!
b0 K!
b0 L!
b0 M!
b0 N!
b0 O!
b0 P!
bx Q!
b0 R!
b0 S!
b0 T!
b0 U!
0V!
b0 W!
b0 X!
b0 Y!
b0 Z!
b0 [!
b0 \!
b0 ]!
b0 ^!
bx _!
0`!
0a!
0b!
x7
bx 8
bx 9
bx :
b1010 !
b0 4
b0 5
b0 6
0Z
0Y
0X
0W
0V
0U
0T
0S
0R
0Q
0P
0O
0N
0M
0L
0K
0J
0I
0H
0G
0F
0E
0D
0C
0B
0A
0@
0?
0>
0=
0<
0;
0z
0y
0x
1w
1v
1u
1t
0s
0r
1q
1p
0o
1n
0m
1l
0k
0j
0i
1h
0g
1f
1e
0d
0c
0b
1a
0`
0_
1^
0]
0\
0[
1<!
0;!
0:!
09!
08!
17!
06!
05!
14!
13!
02!
01!
00!
0/!
1.!
0-!
1,!
0+!
1*!
0)!
0(!
1'!
1&!
0%!
1$!
1#!
1"!
0!!
0~
0}
0|
1{
0H!
0I!
0J!
$end
#5000
13
#10000
03
#15000
13
#20000
b10001000011000000011010111 "
03
1Z
1Y
1X
1V
1T
1S
1K
1J
1E
1A
1V!
b10 R!
b10 W!
b11 P!
b11 T!
b11 U!
b11 ]!
b1 S!
b1010111 K!
1=!
b1 @!
b11 >!
b10 ?!
1B!
1`!
b0 _!
1b!
1*
b10 '
b11 &
b1 (
1%
#25000
13
#30000
17
b1 8
b11 9
b10 :
b1 4
b1 5
b10010000101011000101010111 "
03
0S
1R
1N
1M
0J
1I
0E
1D
b100 R!
b100 W!
b101 P!
b101 T!
b101 U!
b101 ]!
b11 L!
b10 S!
0=!
b0 @!
b0 >!
b0 ?!
0B!
0`!
0b!
1=!
b10 @!
b100 ?!
b101 A!
1B!
1`!
1b!
b101 )
b100 '
b0 &
b10 (
#35000
13
#40000
b10 8
b0 9
b100 :
b10 4
b10 5
b10010100110100000111010111 "
03
1S
0N
0M
1L
0K
1J
1F
b101 R!
b101 W!
b110 P!
b110 T!
b110 U!
b110 ]!
b100 L!
b11 S!
0=!
b0 @!
b0 ?!
b0 A!
0B!
0`!
0b!
1=!
b11 @!
b101 ?!
1B!
1`!
1b!
b0 )
b101 '
b11 (
#45000
13
#50000
b11 8
b101 :
b11 4
b11 5
b10010011101000000001001010111 "
03
0S
0R
1Q
0L
0J
0I
1H
1E
1>
b100 M!
b100 N!
b100 ^!
b111 R!
b111 W!
b1000 P!
b1000 T!
b1000 U!
b1000 ]!
b0 L!
b100 S!
0=!
b0 @!
b0 ?!
0B!
0`!
0b!
1=!
b100 @!
b1000 >!
b111 ?!
1B!
1`!
b100 _!
1b!
b1000 &
b111 '
b100 (
#55000
13
#60000
b100 8
b1000 9
b111 :
b100 4
b100 5
b101010100101010010001011010111 "
03
1S
1M
1J
0E
0D
1C
1?
0>
1=
b1010 M!
b1010 N!
b1010 ^!
b10 X!
b1001 R!
b1001 W!
b1010 P!
b1010 T!
b1010 U!
b1010 ]!
b10 L!
b101 S!
0=!
b0 @!
b0 >!
b0 ?!
0B!
0`!
0b!
1=!
b101 @!
b1010 >!
b1001 ?!
1B!
b0 _!
b1001 '
b1010 &
b101 (
#65000
13
#70000
b101 8
b1010 9
b1001 :
b101 4
b101 5
b101010101101100110001101010111 "
03
0S
1R
1L
0J
1I
1E
b1011 R!
b1011 W!
b1100 P!
b1100 T!
b1100 U!
b1100 ]!
b110 L!
b110 S!
0=!
b0 @!
b0 >!
b0 ?!
0B!
1=!
b110 @!
b1011 ?!
1B!
b1011 '
b0 &
b110 (
#75000
13
#80000
b110 8
b0 9
b1011 :
b110 4
b110 5
b1001010110101110000001111010111 "
03
1S
0M
0L
1J
0E
1D
0=
1<
b1 O!
b10010 M!
b10010 N!
b10010 ^!
b1101 R!
b1101 W!
b1110 P!
b1110 T!
b1110 U!
b1110 ]!
b0 L!
b111 S!
0=!
b0 @!
b0 ?!
0B!
1=!
b111 @!
b1110 >!
b1101 ?!
1B!
1`!
b10010 _!
1b!
b1110 &
b1101 '
b111 (
#85000
13
#90000
b111 8
b1110 9
b1101 :
b111 4
b111 5
b1010010111100111011010001010111 "
03
0S
0R
0Q
1P
1N
1M
1K
0H
1E
0?
1>
b10100 M!
b10100 N!
b10100 ^!
b0 X!
b1111 R!
b1111 W!
b111 P!
b111 T!
b111 U!
b111 ]!
b11 L!
b1000 S!
0=!
b0 @!
b0 >!
b0 ?!
0B!
0`!
0b!
1=!
b1000 @!
b1111 ?!
b111 A!
1B!
b0 _!
b111 )
b1111 '
b0 &
b1000 (
#95000
13
#100000
b1000 8
b0 9
b1111 :
b1000 4
b1000 5
b101011000000101100010011010111 "
03
1S
0N
0M
1L
0J
0F
0E
0D
0C
1B
1?
0>
1=
0<
b0 O!
b1010 M!
b1010 N!
b1010 ^!
b10 X!
b10000 R!
b10000 W!
b101 P!
b101 T!
b101 U!
b101 ]!
b100 L!
b1001 S!
0=!
b0 @!
b0 ?!
b0 A!
0B!
1=!
b1001 @!
b10000 ?!
1B!
1`!
b1010 _!
1b!
b0 )
b10000 '
b1001 (
#105000
13
#110000
b1001 8
b10000 :
b1001 4
b1001 5
b1111111010101010111 "
b1000000 #
11
03
0w
0v
0u
0q
0p
0n
0l
0h
0f
0e
0a
0^
0S
1R
1N
1M
1J
1H
0B
0A
0?
0=
1I!
b0 M!
b0 N!
b0 ^!
b0 X!
0V!
b0 R!
b0 W!
b1111 P!
b1111 T!
b1111 U!
b1111 ]!
b111 L!
b1010 S!
0=!
b0 @!
b0 ?!
0B!
0`!
0b!
1=!
b1000000 Y!
0*
b0 '
b0 (
b1000000 G!
b1000000 /
#115000
13
#120000
b1010 4
b1010 5
b10000010100000010110000111 "
b1000000000000 #
03
0t
1n
0V
0T
1S
0N
0M
0L
0K
0J
0H
1G
1A
1V!
b10100 P!
b10100 T!
b10100 U!
b10100 ]!
b0 L!
b1011 S!
b111 K!
0=!
b0 Y!
1=!
b1011 @!
b1000000000000 Y!
1B!
1*
b1011 (
b1000000000000 G!
b1000000000000 /
#125000
13
#130000
b1011 4
b1011 5
b10000010101010011000100111 "
b10000000000000 #
03
0n
1m
1U
0S
0R
1Q
1M
1K
b10101 P!
b10101 T!
b10101 U!
b10101 ]!
b10 L!
b1100 S!
b100111 K!
0=!
b0 @!
0B!
b0 Y!
1=!
b1100 @!
b10000000000000 Y!
1B!
b10 C!
b10 +
b1100 (
b10000000000000 G!
b10000000000000 /
#135000
13
#140000
b1100 4
b1100 5
b10001000011000000010110011 "
03
0X
1V
1S
0Q
0P
0M
1J
0I
0G
1E
b10 R!
b10 W!
b11 P!
b11 T!
b11 U!
b11 ]!
b0 L!
b1 S!
b110011 K!
0=!
b0 @!
0B!
b0 Y!
b0 C!
b0 +
0*
b0 (
0%
b0 G!
b0 /
#145000
13
#150000
b1101 4
b1101 5
b100010010100110000011011010111 "
03
1X
0U
1T
1Q
1P
0K
1I
1F
0E
1D
1=
b1000 M!
b1000 N!
b1000 ^!
b101 R!
b101 W!
b110 P!
b110 T!
b110 U!
b110 ]!
b1101 S!
b1010111 K!
1=!
b1101 @!
b110 >!
b101 ?!
1B!
b0 _!
1*
b101 '
b110 &
b1101 (
1%
#155000
13
#160000
b1101 8
b110 9
b101 :
b1110 4
b1110 5
b111010011101000100011101010111 "
03
0S
1R
1L
0J
0I
1H
1E
1?
1>
b1110 M!
b1110 N!
b1110 ^!
b10 X!
b111 R!
b111 W!
b1000 P!
b1000 T!
b1000 U!
b1000 ]!
b100 L!
b1110 S!
0=!
b0 @!
b0 >!
b0 ?!
0B!
1=!
b1110 @!
b111 ?!
1B!
b111 '
b0 &
b1110 (
#165000
13
#170000
b1110 8
b0 9
b111 :
b1111 4
b1111 5
b11011010100101010000011111010111 "
03
1S
0L
1J
0E
0D
1C
0=
1<
1;
b11 O!
b110110 M!
b110110 N!
b110110 ^!
b1001 R!
b1001 W!
b1010 P!
b1010 T!
b1010 U!
b1010 ]!
b0 L!
b1111 S!
0=!
b0 @!
b0 ?!
0B!
1=!
b1111 @!
b1010 >!
b1001 ?!
1B!
b1010 &
b1001 '
b1111 (
#175000
13
#180000
b1111 8
b1010 9
b1001 :
b10000 4
b10000 5
b101101100000100001010111 "
03
0S
0R
0Q
0P
1O
0J
1I
1E
0A
0?
0>
0<
0;
b0 O!
b0 M!
b0 N!
b0 ^!
b0 X!
0V!
b1011 R!
b1011 W!
b1100 P!
b1100 T!
b1100 U!
b1100 ]!
b10000 S!
0=!
b0 @!
b0 >!
b0 ?!
0B!
1=!
b10000 @!
b1100 >!
b1011 ?!
1`!
1b!
0*
b1011 '
b1100 &
b10000 (
#185000
13
#190000
b10000 8
b1100 9
b1011 :
b10001 4
b10001 5
03
